^C:\USERS\LJ-ARITO\SOURCE\REPOS\CSOLDIER\DEBUG\ARMY.OBJ|C:\USERS\LJ-ARITO\SOURCE\REPOS\CSOLDIER\DEBUG\SOLDIER.OBJ|C:\USERS\LJ-ARITO\SOURCE\REPOS\CSOLDIER\DEBUG\SOURCE.OBJ
C:\USERS\LJ-ARITO\SOURCE\REPOS\CSOLDIER\DEBUG\OSMEPOKOLOSIE.ILK
C:\USERS\LJ-ARITO\SOURCE\REPOS\CSOLDIER\DEBUG\OSMEPOKOLOSIE.EXE
C:\USERS\LJ-ARITO\SOURCE\REPOS\CSOLDIER\DEBUG\OSMEPOKOLOSIE.PDB
